An Introduction to the R Programming Language
…
Using tibble (Tidyverse way)

data
#> # A tibble: 344 × 17
#>    study_name sample_number species            region island stage individual_id
#>    <chr>      <chr>         <chr>              <chr>  <chr>  <chr> <chr>        
#>  1 PAL0708    1             Adelie Penguin (P… Anvers Torge… Adul… N1A1         
#>  2 PAL0708    2             Adelie Penguin (P… Anvers Torge… Adul… N1A2         
#>  3 PAL0708    3             Adelie Penguin (P… Anvers Torge… Adul… N2A1         
#>  4 PAL0708    4             Adelie Penguin (P… Anvers Torge… Adul… N2A2         
#>  5 PAL0708    5             Adelie Penguin (P… Anvers Torge… Adul… N3A1         
#>  6 PAL0708    6             Adelie Penguin (P… Anvers Torge… Adul… N3A2         
#>  7 PAL0708    7             Adelie Penguin (P… Anvers Torge… Adul… N4A1         
#>  8 PAL0708    8             Adelie Penguin (P… Anvers Torge… Adul… N4A2         
#>  9 PAL0708    9             Adelie Penguin (P… Anvers Torge… Adul… N5A1         
#> 10 PAL0708    10            Adelie Penguin (P… Anvers Torge… Adul… N5A2         
#> # ℹ 334 more rows
#> # ℹ 10 more variables: clutch_completion <chr>, date_egg <chr>,
#> #   culmen_length_mm <chr>, culmen_depth_mm <chr>, flipper_length_mm <chr>,
#> #   body_mass_g <chr>, sex <chr>, delta_15_n_o_oo <chr>, delta_13_c_o_oo <chr>,
#> #   comments <chr>
…
null_dist <-
  penguins |>
  filter(species %in% c("Adelie", "Gentoo")) |>
  drop_na(flipper_length_mm, species) |>
  specify(flipper_length_mm ~ species) |>
  hypothesize(null = "independence") |>
  generate(reps = 1000, type = "permute") |>
  calculate("t", order = c("Adelie", "Gentoo"))

null_dist
#> Response: flipper_length_mm (numeric)
#> Explanatory: species (factor)
#> Null Hypothesis: independence
#> # A tibble: 1,000 × 2
#>    replicate    stat
#>        <int>   <dbl>
#>  1         1 -0.546 
#>  2         2  0.209 
#>  3         3  0.0804
#>  4         4 -0.533 
#>  5         5  0.162 
#>  6         6 -0.651 
#>  7         7 -0.457 
#>  8         8 -0.965 
#>  9         9 -0.376 
#> 10        10  0.506 
#> # ℹ 990 more rows
…
